%YAML 1.1
%TAG !u! tag:unity3d.com,2011:
--- !u!1 &114183706557565607
GameObject:
  m_ObjectHideFlags: 0
  m_CorrespondingSourceObject: {fileID: 0}
  m_PrefabInstance: {fileID: 0}
  m_PrefabAsset: {fileID: 0}
  serializedVersion: 6
  m_Component:
  - component: {fileID: 3812328803879183090}
  - component: {fileID: 1605492226336780209}
  m_Layer: 31
  m_Name: Nvl 1
  m_TagString: Untagged
  m_Icon: {fileID: 0}
  m_NavMeshLayer: 0
  m_StaticEditorFlags: 0
  m_IsActive: 1
--- !u!4 &3812328803879183090
Transform:
  m_ObjectHideFlags: 0
  m_CorrespondingSourceObject: {fileID: 0}
  m_PrefabInstance: {fileID: 0}
  m_PrefabAsset: {fileID: 0}
  m_GameObject: {fileID: 114183706557565607}
  m_LocalRotation: {x: 0, y: 0, z: 0, w: 1}
  m_LocalPosition: {x: 0, y: 0, z: 0}
  m_LocalScale: {x: 1, y: 1, z: 1}
  m_Children:
  - {fileID: 4397573250517674084}
  m_Father: {fileID: 0}
  m_RootOrder: 0
  m_LocalEulerAnglesHint: {x: 0, y: 0, z: 0}
--- !u!156049354 &1605492226336780209
Grid:
  m_ObjectHideFlags: 0
  m_CorrespondingSourceObject: {fileID: 0}
  m_PrefabInstance: {fileID: 0}
  m_PrefabAsset: {fileID: 0}
  m_GameObject: {fileID: 114183706557565607}
  m_Enabled: 1
  m_CellSize: {x: 1, y: 1, z: 0}
  m_CellGap: {x: 0, y: 0, z: 0}
  m_CellLayout: 0
  m_CellSwizzle: 0
--- !u!1 &328406196379548451
GameObject:
  m_ObjectHideFlags: 0
  m_CorrespondingSourceObject: {fileID: 0}
  m_PrefabInstance: {fileID: 0}
  m_PrefabAsset: {fileID: 0}
  serializedVersion: 6
  m_Component:
  - component: {fileID: 4397573250517674084}
  - component: {fileID: 2269775894130542985}
  - component: {fileID: 7379447015361742295}
  m_Layer: 0
  m_Name: Layer1
  m_TagString: Untagged
  m_Icon: {fileID: 0}
  m_NavMeshLayer: 0
  m_StaticEditorFlags: 0
  m_IsActive: 1
--- !u!4 &4397573250517674084
Transform:
  m_ObjectHideFlags: 0
  m_CorrespondingSourceObject: {fileID: 0}
  m_PrefabInstance: {fileID: 0}
  m_PrefabAsset: {fileID: 0}
  m_GameObject: {fileID: 328406196379548451}
  m_LocalRotation: {x: -0, y: -0, z: -0, w: 1}
  m_LocalPosition: {x: 0, y: 0, z: 0}
  m_LocalScale: {x: 1, y: 1, z: 1}
  m_Children: []
  m_Father: {fileID: 3812328803879183090}
  m_RootOrder: 0
  m_LocalEulerAnglesHint: {x: 0, y: 0, z: 0}
--- !u!1839735485 &2269775894130542985
Tilemap:
  m_ObjectHideFlags: 0
  m_CorrespondingSourceObject: {fileID: 0}
  m_PrefabInstance: {fileID: 0}
  m_PrefabAsset: {fileID: 0}
  m_GameObject: {fileID: 328406196379548451}
  m_Enabled: 1
  m_Tiles:
  - first: {x: -6, y: -12, z: 0}
    second:
      serializedVersion: 2
      m_TileIndex: 78
      m_TileSpriteIndex: 78
      m_TileMatrixIndex: 0
      m_TileColorIndex: 0
      m_TileObjectToInstantiateIndex: 65535
      dummyAlignment: 0
      m_AllTileFlags: 1073741825
  - first: {x: 0, y: -12, z: 0}
    second:
      serializedVersion: 2
      m_TileIndex: 76
      m_TileSpriteIndex: 76
      m_TileMatrixIndex: 0
      m_TileColorIndex: 0
      m_TileObjectToInstantiateIndex: 65535
      dummyAlignment: 0
      m_AllTileFlags: 1073741825
  - first: {x: -6, y: -11, z: 0}
    second:
      serializedVersion: 2
      m_TileIndex: 77
      m_TileSpriteIndex: 77
      m_TileMatrixIndex: 0
      m_TileColorIndex: 0
      m_TileObjectToInstantiateIndex: 65535
      dummyAlignment: 0
      m_AllTileFlags: 1073741825
  - first: {x: -2, y: -7, z: 0}
    second:
      serializedVersion: 2
      m_TileIndex: 72
      m_TileSpriteIndex: 72
      m_TileMatrixIndex: 0
      m_TileColorIndex: 0
      m_TileObjectToInstantiateIndex: 65535
      dummyAlignment: 0
      m_AllTileFlags: 1073741825
  - first: {x: -1, y: -7, z: 0}
    second:
      serializedVersion: 2
      m_TileIndex: 73
      m_TileSpriteIndex: 73
      m_TileMatrixIndex: 0
      m_TileColorIndex: 0
      m_TileObjectToInstantiateIndex: 65535
      dummyAlignment: 0
      m_AllTileFlags: 1073741825
  - first: {x: 0, y: -7, z: 0}
    second:
      serializedVersion: 2
      m_TileIndex: 74
      m_TileSpriteIndex: 74
      m_TileMatrixIndex: 0
      m_TileColorIndex: 0
      m_TileObjectToInstantiateIndex: 65535
      dummyAlignment: 0
      m_AllTileFlags: 1073741825
  - first: {x: 1, y: -7, z: 0}
    second:
      serializedVersion: 2
      m_TileIndex: 75
      m_TileSpriteIndex: 75
      m_TileMatrixIndex: 0
      m_TileColorIndex: 0
      m_TileObjectToInstantiateIndex: 65535
      dummyAlignment: 0
      m_AllTileFlags: 1073741825
  - first: {x: -2, y: -6, z: 0}
    second:
      serializedVersion: 2
      m_TileIndex: 63
      m_TileSpriteIndex: 63
      m_TileMatrixIndex: 0
      m_TileColorIndex: 0
      m_TileObjectToInstantiateIndex: 65535
      dummyAlignment: 0
      m_AllTileFlags: 1073741825
  - first: {x: -1, y: -6, z: 0}
    second:
      serializedVersion: 2
      m_TileIndex: 64
      m_TileSpriteIndex: 64
      m_TileMatrixIndex: 0
      m_TileColorIndex: 0
      m_TileObjectToInstantiateIndex: 65535
      dummyAlignment: 0
      m_AllTileFlags: 1073741825
  - first: {x: 0, y: -6, z: 0}
    second:
      serializedVersion: 2
      m_TileIndex: 65
      m_TileSpriteIndex: 65
      m_TileMatrixIndex: 0
      m_TileColorIndex: 0
      m_TileObjectToInstantiateIndex: 65535
      dummyAlignment: 0
      m_AllTileFlags: 1073741825
  - first: {x: 1, y: -6, z: 0}
    second:
      serializedVersion: 2
      m_TileIndex: 66
      m_TileSpriteIndex: 66
      m_TileMatrixIndex: 0
      m_TileColorIndex: 0
      m_TileObjectToInstantiateIndex: 65535
      dummyAlignment: 0
      m_AllTileFlags: 1073741825
  - first: {x: 2, y: -6, z: 0}
    second:
      serializedVersion: 2
      m_TileIndex: 67
      m_TileSpriteIndex: 67
      m_TileMatrixIndex: 0
      m_TileColorIndex: 0
      m_TileObjectToInstantiateIndex: 65535
      dummyAlignment: 0
      m_AllTileFlags: 1073741825
  - first: {x: 3, y: -6, z: 0}
    second:
      serializedVersion: 2
      m_TileIndex: 68
      m_TileSpriteIndex: 68
      m_TileMatrixIndex: 0
      m_TileColorIndex: 0
      m_TileObjectToInstantiateIndex: 65535
      dummyAlignment: 0
      m_AllTileFlags: 1073741825
  - first: {x: 4, y: -6, z: 0}
    second:
      serializedVersion: 2
      m_TileIndex: 69
      m_TileSpriteIndex: 69
      m_TileMatrixIndex: 0
      m_TileColorIndex: 0
      m_TileObjectToInstantiateIndex: 65535
      dummyAlignment: 0
      m_AllTileFlags: 1073741825
  - first: {x: 5, y: -6, z: 0}
    second:
      serializedVersion: 2
      m_TileIndex: 70
      m_TileSpriteIndex: 70
      m_TileMatrixIndex: 0
      m_TileColorIndex: 0
      m_TileObjectToInstantiateIndex: 65535
      dummyAlignment: 0
      m_AllTileFlags: 1073741825
  - first: {x: 6, y: -6, z: 0}
    second:
      serializedVersion: 2
      m_TileIndex: 71
      m_TileSpriteIndex: 71
      m_TileMatrixIndex: 0
      m_TileColorIndex: 0
      m_TileObjectToInstantiateIndex: 65535
      dummyAlignment: 0
      m_AllTileFlags: 1073741825
  - first: {x: -2, y: -5, z: 0}
    second:
      serializedVersion: 2
      m_TileIndex: 54
      m_TileSpriteIndex: 54
      m_TileMatrixIndex: 0
      m_TileColorIndex: 0
      m_TileObjectToInstantiateIndex: 65535
      dummyAlignment: 0
      m_AllTileFlags: 1073741825
  - first: {x: -1, y: -5, z: 0}
    second:
      serializedVersion: 2
      m_TileIndex: 55
      m_TileSpriteIndex: 55
      m_TileMatrixIndex: 0
      m_TileColorIndex: 0
      m_TileObjectToInstantiateIndex: 65535
      dummyAlignment: 0
      m_AllTileFlags: 1073741825
  - first: {x: 0, y: -5, z: 0}
    second:
      serializedVersion: 2
      m_TileIndex: 56
      m_TileSpriteIndex: 56
      m_TileMatrixIndex: 0
      m_TileColorIndex: 0
      m_TileObjectToInstantiateIndex: 65535
      dummyAlignment: 0
      m_AllTileFlags: 1073741825
  - first: {x: 1, y: -5, z: 0}
    second:
      serializedVersion: 2
      m_TileIndex: 57
      m_TileSpriteIndex: 57
      m_TileMatrixIndex: 0
      m_TileColorIndex: 0
      m_TileObjectToInstantiateIndex: 65535
      dummyAlignment: 0
      m_AllTileFlags: 1073741825
  - first: {x: 2, y: -5, z: 0}
    second:
      serializedVersion: 2
      m_TileIndex: 58
      m_TileSpriteIndex: 58
      m_TileMatrixIndex: 0
      m_TileColorIndex: 0
      m_TileObjectToInstantiateIndex: 65535
      dummyAlignment: 0
      m_AllTileFlags: 1073741825
  - first: {x: 3, y: -5, z: 0}
    second:
      serializedVersion: 2
      m_TileIndex: 59
      m_TileSpriteIndex: 59
      m_TileMatrixIndex: 0
      m_TileColorIndex: 0
      m_TileObjectToInstantiateIndex: 65535
      dummyAlignment: 0
      m_AllTileFlags: 1073741825
  - first: {x: 4, y: -5, z: 0}
    second:
      serializedVersion: 2
      m_TileIndex: 60
      m_TileSpriteIndex: 60
      m_TileMatrixIndex: 0
      m_TileColorIndex: 0
      m_TileObjectToInstantiateIndex: 65535
      dummyAlignment: 0
      m_AllTileFlags: 1073741825
  - first: {x: 5, y: -5, z: 0}
    second:
      serializedVersion: 2
      m_TileIndex: 61
      m_TileSpriteIndex: 61
      m_TileMatrixIndex: 0
      m_TileColorIndex: 0
      m_TileObjectToInstantiateIndex: 65535
      dummyAlignment: 0
      m_AllTileFlags: 1073741825
  - first: {x: 6, y: -5, z: 0}
    second:
      serializedVersion: 2
      m_TileIndex: 62
      m_TileSpriteIndex: 62
      m_TileMatrixIndex: 0
      m_TileColorIndex: 0
      m_TileObjectToInstantiateIndex: 65535
      dummyAlignment: 0
      m_AllTileFlags: 1073741825
  - first: {x: -2, y: -4, z: 0}
    second:
      serializedVersion: 2
      m_TileIndex: 45
      m_TileSpriteIndex: 45
      m_TileMatrixIndex: 0
      m_TileColorIndex: 0
      m_TileObjectToInstantiateIndex: 65535
      dummyAlignment: 0
      m_AllTileFlags: 1073741825
  - first: {x: -1, y: -4, z: 0}
    second:
      serializedVersion: 2
      m_TileIndex: 46
      m_TileSpriteIndex: 46
      m_TileMatrixIndex: 0
      m_TileColorIndex: 0
      m_TileObjectToInstantiateIndex: 65535
      dummyAlignment: 0
      m_AllTileFlags: 1073741825
  - first: {x: 0, y: -4, z: 0}
    second:
      serializedVersion: 2
      m_TileIndex: 47
      m_TileSpriteIndex: 47
      m_TileMatrixIndex: 0
      m_TileColorIndex: 0
      m_TileObjectToInstantiateIndex: 65535
      dummyAlignment: 0
      m_AllTileFlags: 1073741825
  - first: {x: 1, y: -4, z: 0}
    second:
      serializedVersion: 2
      m_TileIndex: 48
      m_TileSpriteIndex: 48
      m_TileMatrixIndex: 0
      m_TileColorIndex: 0
      m_TileObjectToInstantiateIndex: 65535
      dummyAlignment: 0
      m_AllTileFlags: 1073741825
  - first: {x: 2, y: -4, z: 0}
    second:
      serializedVersion: 2
      m_TileIndex: 49
      m_TileSpriteIndex: 49
      m_TileMatrixIndex: 0
      m_TileColorIndex: 0
      m_TileObjectToInstantiateIndex: 65535
      dummyAlignment: 0
      m_AllTileFlags: 1073741825
  - first: {x: 3, y: -4, z: 0}
    second:
      serializedVersion: 2
      m_TileIndex: 50
      m_TileSpriteIndex: 50
      m_TileMatrixIndex: 0
      m_TileColorIndex: 0
      m_TileObjectToInstantiateIndex: 65535
      dummyAlignment: 0
      m_AllTileFlags: 1073741825
  - first: {x: 4, y: -4, z: 0}
    second:
      serializedVersion: 2
      m_TileIndex: 51
      m_TileSpriteIndex: 51
      m_TileMatrixIndex: 0
      m_TileColorIndex: 0
      m_TileObjectToInstantiateIndex: 65535
      dummyAlignment: 0
      m_AllTileFlags: 1073741825
  - first: {x: 5, y: -4, z: 0}
    second:
      serializedVersion: 2
      m_TileIndex: 52
      m_TileSpriteIndex: 52
      m_TileMatrixIndex: 0
      m_TileColorIndex: 0
      m_TileObjectToInstantiateIndex: 65535
      dummyAlignment: 0
      m_AllTileFlags: 1073741825
  - first: {x: 6, y: -4, z: 0}
    second:
      serializedVersion: 2
      m_TileIndex: 53
      m_TileSpriteIndex: 53
      m_TileMatrixIndex: 0
      m_TileColorIndex: 0
      m_TileObjectToInstantiateIndex: 65535
      dummyAlignment: 0
      m_AllTileFlags: 1073741825
  - first: {x: -2, y: -3, z: 0}
    second:
      serializedVersion: 2
      m_TileIndex: 36
      m_TileSpriteIndex: 36
      m_TileMatrixIndex: 0
      m_TileColorIndex: 0
      m_TileObjectToInstantiateIndex: 65535
      dummyAlignment: 0
      m_AllTileFlags: 1073741825
  - first: {x: -1, y: -3, z: 0}
    second:
      serializedVersion: 2
      m_TileIndex: 37
      m_TileSpriteIndex: 37
      m_TileMatrixIndex: 0
      m_TileColorIndex: 0
      m_TileObjectToInstantiateIndex: 65535
      dummyAlignment: 0
      m_AllTileFlags: 1073741825
  - first: {x: 0, y: -3, z: 0}
    second:
      serializedVersion: 2
      m_TileIndex: 38
      m_TileSpriteIndex: 38
      m_TileMatrixIndex: 0
      m_TileColorIndex: 0
      m_TileObjectToInstantiateIndex: 65535
      dummyAlignment: 0
      m_AllTileFlags: 1073741825
  - first: {x: 1, y: -3, z: 0}
    second:
      serializedVersion: 2
      m_TileIndex: 39
      m_TileSpriteIndex: 39
      m_TileMatrixIndex: 0
      m_TileColorIndex: 0
      m_TileObjectToInstantiateIndex: 65535
      dummyAlignment: 0
      m_AllTileFlags: 1073741825
  - first: {x: 2, y: -3, z: 0}
    second:
      serializedVersion: 2
      m_TileIndex: 40
      m_TileSpriteIndex: 40
      m_TileMatrixIndex: 0
      m_TileColorIndex: 0
      m_TileObjectToInstantiateIndex: 65535
      dummyAlignment: 0
      m_AllTileFlags: 1073741825
  - first: {x: 3, y: -3, z: 0}
    second:
      serializedVersion: 2
      m_TileIndex: 41
      m_TileSpriteIndex: 41
      m_TileMatrixIndex: 0
      m_TileColorIndex: 0
      m_TileObjectToInstantiateIndex: 65535
      dummyAlignment: 0
      m_AllTileFlags: 1073741825
  - first: {x: 4, y: -3, z: 0}
    second:
      serializedVersion: 2
      m_TileIndex: 42
      m_TileSpriteIndex: 42
      m_TileMatrixIndex: 0
      m_TileColorIndex: 0
      m_TileObjectToInstantiateIndex: 65535
      dummyAlignment: 0
      m_AllTileFlags: 1073741825
  - first: {x: 5, y: -3, z: 0}
    second:
      serializedVersion: 2
      m_TileIndex: 43
      m_TileSpriteIndex: 43
      m_TileMatrixIndex: 0
      m_TileColorIndex: 0
      m_TileObjectToInstantiateIndex: 65535
      dummyAlignment: 0
      m_AllTileFlags: 1073741825
  - first: {x: 6, y: -3, z: 0}
    second:
      serializedVersion: 2
      m_TileIndex: 44
      m_TileSpriteIndex: 44
      m_TileMatrixIndex: 0
      m_TileColorIndex: 0
      m_TileObjectToInstantiateIndex: 65535
      dummyAlignment: 0
      m_AllTileFlags: 1073741825
  - first: {x: -2, y: -2, z: 0}
    second:
      serializedVersion: 2
      m_TileIndex: 27
      m_TileSpriteIndex: 27
      m_TileMatrixIndex: 0
      m_TileColorIndex: 0
      m_TileObjectToInstantiateIndex: 65535
      dummyAlignment: 0
      m_AllTileFlags: 1073741825
  - first: {x: -1, y: -2, z: 0}
    second:
      serializedVersion: 2
      m_TileIndex: 28
      m_TileSpriteIndex: 28
      m_TileMatrixIndex: 0
      m_TileColorIndex: 0
      m_TileObjectToInstantiateIndex: 65535
      dummyAlignment: 0
      m_AllTileFlags: 1073741825
  - first: {x: 0, y: -2, z: 0}
    second:
      serializedVersion: 2
      m_TileIndex: 29
      m_TileSpriteIndex: 29
      m_TileMatrixIndex: 0
      m_TileColorIndex: 0
      m_TileObjectToInstantiateIndex: 65535
      dummyAlignment: 0
      m_AllTileFlags: 1073741825
  - first: {x: 1, y: -2, z: 0}
    second:
      serializedVersion: 2
      m_TileIndex: 30
      m_TileSpriteIndex: 30
      m_TileMatrixIndex: 0
      m_TileColorIndex: 0
      m_TileObjectToInstantiateIndex: 65535
      dummyAlignment: 0
      m_AllTileFlags: 1073741825
  - first: {x: 2, y: -2, z: 0}
    second:
      serializedVersion: 2
      m_TileIndex: 31
      m_TileSpriteIndex: 31
      m_TileMatrixIndex: 0
      m_TileColorIndex: 0
      m_TileObjectToInstantiateIndex: 65535
      dummyAlignment: 0
      m_AllTileFlags: 1073741825
  - first: {x: 3, y: -2, z: 0}
    second:
      serializedVersion: 2
      m_TileIndex: 32
      m_TileSpriteIndex: 32
      m_TileMatrixIndex: 0
      m_TileColorIndex: 0
      m_TileObjectToInstantiateIndex: 65535
      dummyAlignment: 0
      m_AllTileFlags: 1073741825
  - first: {x: 4, y: -2, z: 0}
    second:
      serializedVersion: 2
      m_TileIndex: 33
      m_TileSpriteIndex: 33
      m_TileMatrixIndex: 0
      m_TileColorIndex: 0
      m_TileObjectToInstantiateIndex: 65535
      dummyAlignment: 0
      m_AllTileFlags: 1073741825
  - first: {x: 5, y: -2, z: 0}
    second:
      serializedVersion: 2
      m_TileIndex: 34
      m_TileSpriteIndex: 34
      m_TileMatrixIndex: 0
      m_TileColorIndex: 0
      m_TileObjectToInstantiateIndex: 65535
      dummyAlignment: 0
      m_AllTileFlags: 1073741825
  - first: {x: 6, y: -2, z: 0}
    second:
      serializedVersion: 2
      m_TileIndex: 35
      m_TileSpriteIndex: 35
      m_TileMatrixIndex: 0
      m_TileColorIndex: 0
      m_TileObjectToInstantiateIndex: 65535
      dummyAlignment: 0
      m_AllTileFlags: 1073741825
  - first: {x: -2, y: -1, z: 0}
    second:
      serializedVersion: 2
      m_TileIndex: 18
      m_TileSpriteIndex: 18
      m_TileMatrixIndex: 0
      m_TileColorIndex: 0
      m_TileObjectToInstantiateIndex: 65535
      dummyAlignment: 0
      m_AllTileFlags: 1073741825
  - first: {x: -1, y: -1, z: 0}
    second:
      serializedVersion: 2
      m_TileIndex: 19
      m_TileSpriteIndex: 19
      m_TileMatrixIndex: 0
      m_TileColorIndex: 0
      m_TileObjectToInstantiateIndex: 65535
      dummyAlignment: 0
      m_AllTileFlags: 1073741825
  - first: {x: 0, y: -1, z: 0}
    second:
      serializedVersion: 2
      m_TileIndex: 20
      m_TileSpriteIndex: 20
      m_TileMatrixIndex: 0
      m_TileColorIndex: 0
      m_TileObjectToInstantiateIndex: 65535
      dummyAlignment: 0
      m_AllTileFlags: 1073741825
  - first: {x: 1, y: -1, z: 0}
    second:
      serializedVersion: 2
      m_TileIndex: 21
      m_TileSpriteIndex: 21
      m_TileMatrixIndex: 0
      m_TileColorIndex: 0
      m_TileObjectToInstantiateIndex: 65535
      dummyAlignment: 0
      m_AllTileFlags: 1073741825
  - first: {x: 2, y: -1, z: 0}
    second:
      serializedVersion: 2
      m_TileIndex: 22
      m_TileSpriteIndex: 22
      m_TileMatrixIndex: 0
      m_TileColorIndex: 0
      m_TileObjectToInstantiateIndex: 65535
      dummyAlignment: 0
      m_AllTileFlags: 1073741825
  - first: {x: 3, y: -1, z: 0}
    second:
      serializedVersion: 2
      m_TileIndex: 23
      m_TileSpriteIndex: 23
      m_TileMatrixIndex: 0
      m_TileColorIndex: 0
      m_TileObjectToInstantiateIndex: 65535
      dummyAlignment: 0
      m_AllTileFlags: 1073741825
  - first: {x: 4, y: -1, z: 0}
    second:
      serializedVersion: 2
      m_TileIndex: 24
      m_TileSpriteIndex: 24
      m_TileMatrixIndex: 0
      m_TileColorIndex: 0
      m_TileObjectToInstantiateIndex: 65535
      dummyAlignment: 0
      m_AllTileFlags: 1073741825
  - first: {x: 5, y: -1, z: 0}
    second:
      serializedVersion: 2
      m_TileIndex: 25
      m_TileSpriteIndex: 25
      m_TileMatrixIndex: 0
      m_TileColorIndex: 0
      m_TileObjectToInstantiateIndex: 65535
      dummyAlignment: 0
      m_AllTileFlags: 1073741825
  - first: {x: 6, y: -1, z: 0}
    second:
      serializedVersion: 2
      m_TileIndex: 26
      m_TileSpriteIndex: 26
      m_TileMatrixIndex: 0
      m_TileColorIndex: 0
      m_TileObjectToInstantiateIndex: 65535
      dummyAlignment: 0
      m_AllTileFlags: 1073741825
  - first: {x: -2, y: 0, z: 0}
    second:
      serializedVersion: 2
      m_TileIndex: 9
      m_TileSpriteIndex: 9
      m_TileMatrixIndex: 0
      m_TileColorIndex: 0
      m_TileObjectToInstantiateIndex: 65535
      dummyAlignment: 0
      m_AllTileFlags: 1073741825
  - first: {x: -1, y: 0, z: 0}
    second:
      serializedVersion: 2
      m_TileIndex: 10
      m_TileSpriteIndex: 10
      m_TileMatrixIndex: 0
      m_TileColorIndex: 0
      m_TileObjectToInstantiateIndex: 65535
      dummyAlignment: 0
      m_AllTileFlags: 1073741825
  - first: {x: 0, y: 0, z: 0}
    second:
      serializedVersion: 2
      m_TileIndex: 11
      m_TileSpriteIndex: 11
      m_TileMatrixIndex: 0
      m_TileColorIndex: 0
      m_TileObjectToInstantiateIndex: 65535
      dummyAlignment: 0
      m_AllTileFlags: 1073741825
  - first: {x: 1, y: 0, z: 0}
    second:
      serializedVersion: 2
      m_TileIndex: 12
      m_TileSpriteIndex: 12
      m_TileMatrixIndex: 0
      m_TileColorIndex: 0
      m_TileObjectToInstantiateIndex: 65535
      dummyAlignment: 0
      m_AllTileFlags: 1073741825
  - first: {x: 2, y: 0, z: 0}
    second:
      serializedVersion: 2
      m_TileIndex: 13
      m_TileSpriteIndex: 13
      m_TileMatrixIndex: 0
      m_TileColorIndex: 0
      m_TileObjectToInstantiateIndex: 65535
      dummyAlignment: 0
      m_AllTileFlags: 1073741825
  - first: {x: 3, y: 0, z: 0}
    second:
      serializedVersion: 2
      m_TileIndex: 14
      m_TileSpriteIndex: 14
      m_TileMatrixIndex: 0
      m_TileColorIndex: 0
      m_TileObjectToInstantiateIndex: 65535
      dummyAlignment: 0
      m_AllTileFlags: 1073741825
  - first: {x: 4, y: 0, z: 0}
    second:
      serializedVersion: 2
      m_TileIndex: 15
      m_TileSpriteIndex: 15
      m_TileMatrixIndex: 0
      m_TileColorIndex: 0
      m_TileObjectToInstantiateIndex: 65535
      dummyAlignment: 0
      m_AllTileFlags: 1073741825
  - first: {x: 5, y: 0, z: 0}
    second:
      serializedVersion: 2
      m_TileIndex: 16
      m_TileSpriteIndex: 16
      m_TileMatrixIndex: 0
      m_TileColorIndex: 0
      m_TileObjectToInstantiateIndex: 65535
      dummyAlignment: 0
      m_AllTileFlags: 1073741825
  - first: {x: 6, y: 0, z: 0}
    second:
      serializedVersion: 2
      m_TileIndex: 17
      m_TileSpriteIndex: 17
      m_TileMatrixIndex: 0
      m_TileColorIndex: 0
      m_TileObjectToInstantiateIndex: 65535
      dummyAlignment: 0
      m_AllTileFlags: 1073741825
  - first: {x: -2, y: 1, z: 0}
    second:
      serializedVersion: 2
      m_TileIndex: 0
      m_TileSpriteIndex: 0
      m_TileMatrixIndex: 0
      m_TileColorIndex: 0
      m_TileObjectToInstantiateIndex: 65535
      dummyAlignment: 0
      m_AllTileFlags: 1073741825
  - first: {x: -1, y: 1, z: 0}
    second:
      serializedVersion: 2
      m_TileIndex: 1
      m_TileSpriteIndex: 1
      m_TileMatrixIndex: 0
      m_TileColorIndex: 0
      m_TileObjectToInstantiateIndex: 65535
      dummyAlignment: 0
      m_AllTileFlags: 1073741825
  - first: {x: 0, y: 1, z: 0}
    second:
      serializedVersion: 2
      m_TileIndex: 2
      m_TileSpriteIndex: 2
      m_TileMatrixIndex: 0
      m_TileColorIndex: 0
      m_TileObjectToInstantiateIndex: 65535
      dummyAlignment: 0
      m_AllTileFlags: 1073741825
  - first: {x: 1, y: 1, z: 0}
    second:
      serializedVersion: 2
      m_TileIndex: 3
      m_TileSpriteIndex: 3
      m_TileMatrixIndex: 0
      m_TileColorIndex: 0
      m_TileObjectToInstantiateIndex: 65535
      dummyAlignment: 0
      m_AllTileFlags: 1073741825
  - first: {x: 2, y: 1, z: 0}
    second:
      serializedVersion: 2
      m_TileIndex: 4
      m_TileSpriteIndex: 4
      m_TileMatrixIndex: 0
      m_TileColorIndex: 0
      m_TileObjectToInstantiateIndex: 65535
      dummyAlignment: 0
      m_AllTileFlags: 1073741825
  - first: {x: 3, y: 1, z: 0}
    second:
      serializedVersion: 2
      m_TileIndex: 5
      m_TileSpriteIndex: 5
      m_TileMatrixIndex: 0
      m_TileColorIndex: 0
      m_TileObjectToInstantiateIndex: 65535
      dummyAlignment: 0
      m_AllTileFlags: 1073741825
  - first: {x: 4, y: 1, z: 0}
    second:
      serializedVersion: 2
      m_TileIndex: 6
      m_TileSpriteIndex: 6
      m_TileMatrixIndex: 0
      m_TileColorIndex: 0
      m_TileObjectToInstantiateIndex: 65535
      dummyAlignment: 0
      m_AllTileFlags: 1073741825
  - first: {x: 5, y: 1, z: 0}
    second:
      serializedVersion: 2
      m_TileIndex: 7
      m_TileSpriteIndex: 7
      m_TileMatrixIndex: 0
      m_TileColorIndex: 0
      m_TileObjectToInstantiateIndex: 65535
      dummyAlignment: 0
      m_AllTileFlags: 1073741825
  - first: {x: 6, y: 1, z: 0}
    second:
      serializedVersion: 2
      m_TileIndex: 8
      m_TileSpriteIndex: 8
      m_TileMatrixIndex: 0
      m_TileColorIndex: 0
      m_TileObjectToInstantiateIndex: 65535
      dummyAlignment: 0
      m_AllTileFlags: 1073741825
  m_AnimatedTiles: {}
  m_TileAssetArray:
  - m_RefCount: 1
    m_Data: {fileID: 11400000, guid: e367e14beaaf1864da0e42dd3e1fc474, type: 2}
  - m_RefCount: 1
    m_Data: {fileID: 11400000, guid: 6fd75c09bf7f23849b9b5ec373a15763, type: 2}
  - m_RefCount: 1
    m_Data: {fileID: 11400000, guid: d5ca38fa3adbeb84dbf3e1c68b52301b, type: 2}
  - m_RefCount: 1
    m_Data: {fileID: 11400000, guid: 81d80d45883d4e843badcc86f4e26cd1, type: 2}
  - m_RefCount: 1
    m_Data: {fileID: 11400000, guid: 010f99a8461f7934a983292d6a240d85, type: 2}
  - m_RefCount: 1
    m_Data: {fileID: 11400000, guid: 564bc87bc60718c4bb4da3ef3aeb7894, type: 2}
  - m_RefCount: 1
    m_Data: {fileID: 11400000, guid: 21c4a9bf47d519f43bb620556f0d69e8, type: 2}
  - m_RefCount: 1
    m_Data: {fileID: 11400000, guid: 13f2ccea790572748add1aa1612097e1, type: 2}
  - m_RefCount: 1
    m_Data: {fileID: 11400000, guid: 7e63eefbb643faa44aa10ec4342eaa62, type: 2}
  - m_RefCount: 1
    m_Data: {fileID: 11400000, guid: 49c467f587234d9438c4b5363aacda10, type: 2}
  - m_RefCount: 1
    m_Data: {fileID: 11400000, guid: ee50ba61deb7b50429332972c24fa4de, type: 2}
  - m_RefCount: 1
    m_Data: {fileID: 11400000, guid: dc70e01c57f142943ba6d0e371a10e71, type: 2}
  - m_RefCount: 1
    m_Data: {fileID: 11400000, guid: e00c672c88ec3c943b44625f14bd47a1, type: 2}
  - m_RefCount: 1
    m_Data: {fileID: 11400000, guid: 9e23dc20344386748b821e3953177481, type: 2}
  - m_RefCount: 1
    m_Data: {fileID: 11400000, guid: 66f44fb624bb6cc4488e0306c4455935, type: 2}
  - m_RefCount: 1
    m_Data: {fileID: 11400000, guid: a2343f6b1cf67bd498262463b44d8fb3, type: 2}
  - m_RefCount: 1
    m_Data: {fileID: 11400000, guid: 09e1b6645fd514c4cb5705379ce2ec40, type: 2}
  - m_RefCount: 1
    m_Data: {fileID: 11400000, guid: c47f355a76085d5448868eec34941317, type: 2}
  - m_RefCount: 1
    m_Data: {fileID: 11400000, guid: 8c8c0ab27fb23fa47bfd19994f56914f, type: 2}
  - m_RefCount: 1
    m_Data: {fileID: 11400000, guid: f350c4c93dbcfc84ea810c9873398e13, type: 2}
  - m_RefCount: 1
    m_Data: {fileID: 11400000, guid: 89650a247a3e3f140bf9e1a922106c81, type: 2}
  - m_RefCount: 1
    m_Data: {fileID: 11400000, guid: 054d88d6dd593794797cd8caec8c7099, type: 2}
  - m_RefCount: 1
    m_Data: {fileID: 11400000, guid: c54910fbbfd9a78418e1d8de68a50e0b, type: 2}
  - m_RefCount: 1
    m_Data: {fileID: 11400000, guid: d6ce3e832cf4e72438502510c1556f6c, type: 2}
  - m_RefCount: 1
    m_Data: {fileID: 11400000, guid: f0e5a505282f4eb438266d78d78af7ac, type: 2}
  - m_RefCount: 1
    m_Data: {fileID: 11400000, guid: 7a3090d1e95fad842ab74b426ea38c33, type: 2}
  - m_RefCount: 1
    m_Data: {fileID: 11400000, guid: e87e79da4eeac0e43a98d72065a73bfe, type: 2}
  - m_RefCount: 1
    m_Data: {fileID: 11400000, guid: 08162e5928ad4f745a43ee4dd6557f33, type: 2}
  - m_RefCount: 1
    m_Data: {fileID: 11400000, guid: 2a4ad0418d1d749498fd378174f63b14, type: 2}
  - m_RefCount: 1
    m_Data: {fileID: 11400000, guid: f7eba5cc022c51f40aeda4b144374a8f, type: 2}
  - m_RefCount: 1
    m_Data: {fileID: 11400000, guid: 3c2b1a9587938de4e87aa2bdcb34a68d, type: 2}
  - m_RefCount: 1
    m_Data: {fileID: 11400000, guid: f5589f960c936904db47ca1f3ffabf8f, type: 2}
  - m_RefCount: 1
    m_Data: {fileID: 11400000, guid: 9305bbc71294e494488c488cb853b1cb, type: 2}
  - m_RefCount: 1
    m_Data: {fileID: 11400000, guid: d8727813b4d95204ab91997c6395483b, type: 2}
  - m_RefCount: 1
    m_Data: {fileID: 11400000, guid: e236756a6c1b503469597dcc07676523, type: 2}
  - m_RefCount: 1
    m_Data: {fileID: 11400000, guid: 7863e7431a5872d43beb3b7b303ff4a8, type: 2}
  - m_RefCount: 1
    m_Data: {fileID: 11400000, guid: 8749e5f991cc77e41b8ec02f7d709f1d, type: 2}
  - m_RefCount: 1
    m_Data: {fileID: 11400000, guid: e661d976bbedd3d449470946cfaa7710, type: 2}
  - m_RefCount: 1
    m_Data: {fileID: 11400000, guid: 3c704364cc78d8e4ba9833b7260c4ee5, type: 2}
  - m_RefCount: 1
    m_Data: {fileID: 11400000, guid: 922ecb3d299781245aae54a50ac01023, type: 2}
  - m_RefCount: 1
    m_Data: {fileID: 11400000, guid: eeb396d3bc33aa248a94fbfaf774843a, type: 2}
  - m_RefCount: 1
    m_Data: {fileID: 11400000, guid: 37bc0d5a97ce0f94ba41f4ec5180421b, type: 2}
  - m_RefCount: 1
    m_Data: {fileID: 11400000, guid: 4218765ba140b0f43bb7e40f35e45961, type: 2}
  - m_RefCount: 1
    m_Data: {fileID: 11400000, guid: db31cd0bccda0464080f6cd48efe0597, type: 2}
  - m_RefCount: 1
    m_Data: {fileID: 11400000, guid: 670d55697f84cc64faf2172dd768f10f, type: 2}
  - m_RefCount: 1
    m_Data: {fileID: 11400000, guid: 1e2859bb376320345b7f967513f9d1ac, type: 2}
  - m_RefCount: 1
    m_Data: {fileID: 11400000, guid: a0ff615cf16b66c4fa4136cf0ef93a6e, type: 2}
  - m_RefCount: 1
    m_Data: {fileID: 11400000, guid: 06ad66d015064284cac7bee146f058c5, type: 2}
  - m_RefCount: 1
    m_Data: {fileID: 11400000, guid: 672946999c5abce469c0bbdc10f70c47, type: 2}
  - m_RefCount: 1
    m_Data: {fileID: 11400000, guid: 77b6d1e7d8162534ca9d5e4d045cbc8d, type: 2}
  - m_RefCount: 1
    m_Data: {fileID: 11400000, guid: c08e6b036be375a45ae1c7b6873bf7d6, type: 2}
  - m_RefCount: 1
    m_Data: {fileID: 11400000, guid: 7ce25b533ec63a14eb6a44f9206e3f44, type: 2}
  - m_RefCount: 1
    m_Data: {fileID: 11400000, guid: 4f74026c48a2b194ca7e29ba7fe926cd, type: 2}
  - m_RefCount: 1
    m_Data: {fileID: 11400000, guid: d3874fe2e1c54ab4cbf058be095d1b55, type: 2}
  - m_RefCount: 1
    m_Data: {fileID: 11400000, guid: 0591eabb231cc4f459a07fa96c8be864, type: 2}
  - m_RefCount: 1
    m_Data: {fileID: 11400000, guid: aaf1f4bbc2f22444d98f1797549b1a3b, type: 2}
  - m_RefCount: 1
    m_Data: {fileID: 11400000, guid: 3533265ba71ed09469de3c2134b879ba, type: 2}
  - m_RefCount: 1
    m_Data: {fileID: 11400000, guid: 691ac2ebe4b824b41b1a19727b5481fa, type: 2}
  - m_RefCount: 1
    m_Data: {fileID: 11400000, guid: 85722e92c6eb6214cbc51001bf7b36eb, type: 2}
  - m_RefCount: 1
    m_Data: {fileID: 11400000, guid: 22d6556a1ed961d4aadee3131dca0448, type: 2}
  - m_RefCount: 1
    m_Data: {fileID: 11400000, guid: a0dff0542c51c7a489c2f613a7fca022, type: 2}
  - m_RefCount: 1
    m_Data: {fileID: 11400000, guid: 4274636ac4fe9424bbc84239f5dc0e91, type: 2}
  - m_RefCount: 1
    m_Data: {fileID: 11400000, guid: d7c28337cfd2448468f7e8f60b52563c, type: 2}
  - m_RefCount: 1
    m_Data: {fileID: 11400000, guid: 269fba69e78bdac44bef99a11203cd9f, type: 2}
  - m_RefCount: 1
    m_Data: {fileID: 11400000, guid: b04fa73d8835d244cad55cc0f42377b8, type: 2}
  - m_RefCount: 1
    m_Data: {fileID: 11400000, guid: 3f3d3e4f63d40044ca1813b1f2317604, type: 2}
  - m_RefCount: 1
    m_Data: {fileID: 11400000, guid: 6329124f9f4472f4984dd0e152c7ee33, type: 2}
  - m_RefCount: 1
    m_Data: {fileID: 11400000, guid: b5c41860e8376e043b7fb8f6ccf74d66, type: 2}
  - m_RefCount: 1
    m_Data: {fileID: 11400000, guid: f7b43397f9483664cbe277cafe05ea8d, type: 2}
  - m_RefCount: 1
    m_Data: {fileID: 11400000, guid: 7b49f7868c0d270438c029043efb43d7, type: 2}
  - m_RefCount: 1
    m_Data: {fileID: 11400000, guid: db6fd7f2f13e62847b42002b9bf07d76, type: 2}
  - m_RefCount: 1
    m_Data: {fileID: 11400000, guid: a39e23f638c45f94c92e55ccbbae7bc0, type: 2}
  - m_RefCount: 1
    m_Data: {fileID: 11400000, guid: 42c2f03a6b561ed49abf4976ed868736, type: 2}
  - m_RefCount: 1
    m_Data: {fileID: 11400000, guid: 7da835d3fad4f42469845057272423a9, type: 2}
  - m_RefCount: 1
    m_Data: {fileID: 11400000, guid: bb89ac288c6323546866dc1f2cf445ba, type: 2}
  - m_RefCount: 1
    m_Data: {fileID: 11400000, guid: 7b76ad42da30f7747a42344f0c3983d0, type: 2}
  - m_RefCount: 1
    m_Data: {fileID: 11400000, guid: 200f397d88dea914e9b35e8b8e7965f8, type: 2}
  - m_RefCount: 1
    m_Data: {fileID: 11400000, guid: b618c3fbdd9ee39459f4a484f00471c0, type: 2}
  - m_RefCount: 1
    m_Data: {fileID: 11400000, guid: 8edd326ea12755c4ba1c0d92cee942cc, type: 2}
  m_TileSpriteArray:
  - m_RefCount: 1
    m_Data: {fileID: 21300000, guid: b26802b24f3c7da45bb5a6998740fcb8, type: 3}
  - m_RefCount: 1
    m_Data: {fileID: 21300000, guid: 264703d6de7281d44b829ad474ca02ce, type: 3}
  - m_RefCount: 1
    m_Data: {fileID: 21300000, guid: af1dbe6de5d036043b8e6a38cdeb2e4a, type: 3}
  - m_RefCount: 1
    m_Data: {fileID: 21300000, guid: 18bfcf5dd7f0e4a4886e39293db087e6, type: 3}
  - m_RefCount: 1
    m_Data: {fileID: 21300000, guid: 986688d972f9cc1479ab6c6b212cb9c4, type: 3}
  - m_RefCount: 1
    m_Data: {fileID: 21300000, guid: ee1c9761620add74a9015c35d95a6219, type: 3}
  - m_RefCount: 1
    m_Data: {fileID: 21300000, guid: 7d04fc2f40984ea49ac41b64700df8bb, type: 3}
  - m_RefCount: 1
    m_Data: {fileID: 21300000, guid: 16874ea97de8e3f4987c749205b60773, type: 3}
  - m_RefCount: 1
    m_Data: {fileID: 21300000, guid: 4f33140fc6059844481f2344604316c6, type: 3}
  - m_RefCount: 1
    m_Data: {fileID: 21300000, guid: f663ce560466cca458cd843e26171a0c, type: 3}
  - m_RefCount: 1
    m_Data: {fileID: 21300000, guid: bcbf6e48c7201264bb80596ee47f6503, type: 3}
  - m_RefCount: 1
    m_Data: {fileID: 21300000, guid: ad130fc06f16f934f8aefde9e466dc35, type: 3}
  - m_RefCount: 1
    m_Data: {fileID: 21300000, guid: 7028920b38f7fe644987be37caa02079, type: 3}
  - m_RefCount: 1
    m_Data: {fileID: 21300000, guid: 6bb7865871b426a469f03e68998c54a0, type: 3}
  - m_RefCount: 1
    m_Data: {fileID: 21300000, guid: f626e70c3f3a8c541a5b509972acab15, type: 3}
  - m_RefCount: 1
    m_Data: {fileID: 21300000, guid: 63e7810f3622c5f4880492eeadfa4f53, type: 3}
  - m_RefCount: 1
    m_Data: {fileID: 21300000, guid: 424b677e0d8449c4d827121b91c3d0b8, type: 3}
  - m_RefCount: 1
    m_Data: {fileID: 21300000, guid: 201c3d3a8657881408502b70bf88be77, type: 3}
  - m_RefCount: 1
    m_Data: {fileID: 21300000, guid: acd1f1066d76ee042ad052618c0f1137, type: 3}
  - m_RefCount: 1
    m_Data: {fileID: 21300000, guid: 94775c8f44242804f8c13041d4ff0c19, type: 3}
  - m_RefCount: 1
    m_Data: {fileID: 21300000, guid: 2bd793c1ed65cdb4ab5b3bfb937dd911, type: 3}
  - m_RefCount: 1
    m_Data: {fileID: 21300000, guid: 6bab643588acefe449ed05aef5c561ee, type: 3}
  - m_RefCount: 1
    m_Data: {fileID: 21300000, guid: e1d3da1f0fe20c743bd53906fac50e28, type: 3}
  - m_RefCount: 1
    m_Data: {fileID: 21300000, guid: 099f281fb84560540a76e8c2cc79ca0c, type: 3}
  - m_RefCount: 1
    m_Data: {fileID: 21300000, guid: a98041a77b90c0f4283a034d95f75ace, type: 3}
  - m_RefCount: 1
    m_Data: {fileID: 21300000, guid: 6ed64eb6821d7e7409ef7a81bfcdf9e2, type: 3}
  - m_RefCount: 1
    m_Data: {fileID: 21300000, guid: f0e0089375221fe46956d017907da78b, type: 3}
  - m_RefCount: 1
    m_Data: {fileID: 21300000, guid: 2e6b7c4681a22234e98bf71a4c4987ed, type: 3}
  - m_RefCount: 1
    m_Data: {fileID: 21300000, guid: ca9247a1b4ce61440b93a2f41cb4d172, type: 3}
  - m_RefCount: 1
    m_Data: {fileID: 21300000, guid: 3418d1e3adc72a749af3447cbd31c0df, type: 3}
  - m_RefCount: 1
    m_Data: {fileID: 21300000, guid: 16f61be6d9df5c54caf63daa15d41383, type: 3}
  - m_RefCount: 1
    m_Data: {fileID: 21300000, guid: 7c924e43e1ba8d74fbc002463a52862d, type: 3}
  - m_RefCount: 1
    m_Data: {fileID: 21300000, guid: f31efa61469feab4fb552fa4845f63eb, type: 3}
  - m_RefCount: 1
    m_Data: {fileID: 21300000, guid: ac677b554d3fad84fa9d2377c52ff69b, type: 3}
  - m_RefCount: 1
    m_Data: {fileID: 21300000, guid: db8dd24571fad9140b70983af07b07ed, type: 3}
  - m_RefCount: 1
    m_Data: {fileID: 21300000, guid: e5f5033a6af4f3641a0f5fc7808116b0, type: 3}
  - m_RefCount: 1
    m_Data: {fileID: 21300000, guid: ba4a6b2e6eb1eae41bc8d51b1b217837, type: 3}
  - m_RefCount: 1
    m_Data: {fileID: 21300000, guid: 54493f8059659a946a18216bdee796a7, type: 3}
  - m_RefCount: 1
    m_Data: {fileID: 21300000, guid: b41f61e93c495ef4080dba78fddc2ad0, type: 3}
  - m_RefCount: 1
    m_Data: {fileID: 21300000, guid: 8a8620b6c9a035140984f1a122bdf9a6, type: 3}
  - m_RefCount: 1
    m_Data: {fileID: 21300000, guid: dd2a5ebdc152dab49be08ddc6cc6a8b0, type: 3}
  - m_RefCount: 1
    m_Data: {fileID: 21300000, guid: 705e894a68c595845b1bc5aa68b2870f, type: 3}
  - m_RefCount: 1
    m_Data: {fileID: 21300000, guid: c47fa3c3b5fe91247b34dbe6052a8cd1, type: 3}
  - m_RefCount: 1
    m_Data: {fileID: 21300000, guid: ed7c9e2b7a3dad94a92a0310bae1d0f7, type: 3}
  - m_RefCount: 1
    m_Data: {fileID: 21300000, guid: 7223b916c188a70449251e0d220e2766, type: 3}
  - m_RefCount: 1
    m_Data: {fileID: 21300000, guid: 70f43e5c61fa2854eb130a77f14472db, type: 3}
  - m_RefCount: 1
    m_Data: {fileID: 21300000, guid: 3689229ccf4d4dc41a877ea2b1609490, type: 3}
  - m_RefCount: 1
    m_Data: {fileID: 21300000, guid: 8fdc8dacd30dfc448a8a1a1e6cb3efa7, type: 3}
  - m_RefCount: 1
    m_Data: {fileID: 21300000, guid: 2a1e35b01a288594aba2646bba1b474f, type: 3}
  - m_RefCount: 1
    m_Data: {fileID: 21300000, guid: 320745008dde906468851844e39539bb, type: 3}
  - m_RefCount: 1
    m_Data: {fileID: 21300000, guid: f977e07a3ac79cf44a44ce398ce28596, type: 3}
  - m_RefCount: 1
    m_Data: {fileID: 21300000, guid: 9b1ec577f0a6be345addb3cc99b1abd6, type: 3}
  - m_RefCount: 1
    m_Data: {fileID: 21300000, guid: 7d5329586e47b264f9a65e6387f85799, type: 3}
  - m_RefCount: 1
    m_Data: {fileID: 21300000, guid: fc7086b1678da4b459430bb45ad554b7, type: 3}
  - m_RefCount: 1
    m_Data: {fileID: 21300000, guid: f378a618ffd2c3548acfef8cef0a97ba, type: 3}
  - m_RefCount: 1
    m_Data: {fileID: 21300000, guid: 3f0b3c3f9b644664c9e8e0daa18d6827, type: 3}
  - m_RefCount: 1
    m_Data: {fileID: 21300000, guid: 9e3dd768eaf09e14483f14a74953d66a, type: 3}
  - m_RefCount: 1
    m_Data: {fileID: 21300000, guid: 7e59016c317c9764e9f22507e98cc05c, type: 3}
  - m_RefCount: 1
    m_Data: {fileID: 21300000, guid: f1572010afb7c594694ff0ad330e6449, type: 3}
  - m_RefCount: 1
    m_Data: {fileID: 21300000, guid: a02cf81e743e05643bb57c1733c280c2, type: 3}
  - m_RefCount: 1
    m_Data: {fileID: 21300000, guid: f71f0f5eb961dc444b815e36a190d663, type: 3}
  - m_RefCount: 1
    m_Data: {fileID: 21300000, guid: 3c30d6242ce480947980190100c0d6fc, type: 3}
  - m_RefCount: 1
    m_Data: {fileID: 21300000, guid: 409bdc961671749478d0c3d3cd422b9a, type: 3}
  - m_RefCount: 1
    m_Data: {fileID: 21300000, guid: 8aee1365f212bee45a8ac2410a36a280, type: 3}
  - m_RefCount: 1
    m_Data: {fileID: 21300000, guid: 71ace6cc97f361c4daaecfc049d68bd8, type: 3}
  - m_RefCount: 1
    m_Data: {fileID: 21300000, guid: 41c50e58b3b8f3f4391ee6759178760b, type: 3}
  - m_RefCount: 1
    m_Data: {fileID: 21300000, guid: 0d44c2b40713c6d499a6f528a4a95dac, type: 3}
  - m_RefCount: 1
    m_Data: {fileID: 21300000, guid: 456aeb987ed05774c9208e8c27aae29c, type: 3}
  - m_RefCount: 1
    m_Data: {fileID: 21300000, guid: 81df331886cba9f43ab15c3fc71b912d, type: 3}
  - m_RefCount: 1
    m_Data: {fileID: 21300000, guid: 0bde73c2509d1984b870cda3fb5bb26a, type: 3}
  - m_RefCount: 1
    m_Data: {fileID: 21300000, guid: 603a5c359d48f9a41a0f65d3a2287964, type: 3}
  - m_RefCount: 1
    m_Data: {fileID: 21300000, guid: 37bdd8de88e6eee4da8a0bda706e6b9a, type: 3}
  - m_RefCount: 1
    m_Data: {fileID: 21300000, guid: 740cb11c5687cc04c817509c7ac424be, type: 3}
  - m_RefCount: 1
    m_Data: {fileID: 21300000, guid: 6ae83d2970e178b4e9fc4d1c14027ab1, type: 3}
  - m_RefCount: 1
    m_Data: {fileID: 21300000, guid: 657ae0df7f259a44eba6bdfaf19b428a, type: 3}
  - m_RefCount: 1
    m_Data: {fileID: 21300000, guid: 188972a410b008e4a9e59ff4e2347125, type: 3}
  - m_RefCount: 1
    m_Data: {fileID: -6526699138989136589, guid: fb6559b3b4d1e384aa3597015c42f8b9, type: 3}
  - m_RefCount: 1
    m_Data: {fileID: 2239954587750706762, guid: 6a3af17b0dbc2404591cb602e6c21afe, type: 3}
  - m_RefCount: 1
    m_Data: {fileID: -2683839145823271716, guid: c80369f95ada48546921038ff540a7fb, type: 3}
  m_TileMatrixArray:
  - m_RefCount: 79
    m_Data:
      e00: 1
      e01: 0
      e02: 0
      e03: 0
      e10: 0
      e11: 1
      e12: 0
      e13: 0
      e20: 0
      e21: 0
      e22: 1
      e23: 0
      e30: 0
      e31: 0
      e32: 0
      e33: 1
  m_TileColorArray:
  - m_RefCount: 79
    m_Data: {r: 1, g: 1, b: 1, a: 1}
  m_TileObjectToInstantiateArray: []
  m_AnimationFrameRate: 1
  m_Color: {r: 1, g: 1, b: 1, a: 1}
  m_Origin: {x: -6, y: -12, z: 0}
  m_Size: {x: 13, y: 14, z: 1}
  m_TileAnchor: {x: 0.5, y: 0.5, z: 0}
  m_TileOrientation: 0
  m_TileOrientationMatrix:
    e00: 1
    e01: 0
    e02: 0
    e03: 0
    e10: 0
    e11: 1
    e12: 0
    e13: 0
    e20: 0
    e21: 0
    e22: 1
    e23: 0
    e30: 0
    e31: 0
    e32: 0
    e33: 1
--- !u!483693784 &7379447015361742295
TilemapRenderer:
  m_ObjectHideFlags: 0
  m_CorrespondingSourceObject: {fileID: 0}
  m_PrefabInstance: {fileID: 0}
  m_PrefabAsset: {fileID: 0}
  m_GameObject: {fileID: 328406196379548451}
  m_Enabled: 1
  m_CastShadows: 0
  m_ReceiveShadows: 0
  m_DynamicOccludee: 0
  m_MotionVectors: 1
  m_LightProbeUsage: 0
  m_ReflectionProbeUsage: 0
  m_RayTracingMode: 0
  m_RayTraceProcedural: 0
  m_RenderingLayerMask: 1
  m_RendererPriority: 0
  m_Materials:
  - {fileID: 2100000, guid: a97c105638bdf8b4a8650670310a4cd3, type: 2}
  m_StaticBatchInfo:
    firstSubMesh: 0
    subMeshCount: 0
  m_StaticBatchRoot: {fileID: 0}
  m_ProbeAnchor: {fileID: 0}
  m_LightProbeVolumeOverride: {fileID: 0}
  m_ScaleInLightmap: 1
  m_ReceiveGI: 1
  m_PreserveUVs: 0
  m_IgnoreNormalsForChartDetection: 0
  m_ImportantGI: 0
  m_StitchLightmapSeams: 1
  m_SelectedEditorRenderState: 0
  m_MinimumChartSize: 4
  m_AutoUVMaxDistance: 0.5
  m_AutoUVMaxAngle: 89
  m_LightmapParameters: {fileID: 0}
  m_SortingLayerID: 0
  m_SortingLayer: 0
  m_SortingOrder: 0
  m_ChunkSize: {x: 32, y: 32, z: 32}
  m_ChunkCullingBounds: {x: 4.5, y: 4.5, z: 0}
  m_MaxChunkCount: 16
  m_MaxFrameAge: 16
  m_SortOrder: 0
  m_Mode: 0
  m_DetectChunkCullingBounds: 0
  m_MaskInteraction: 0
--- !u!114 &5208600839304292551
MonoBehaviour:
  m_ObjectHideFlags: 0
  m_CorrespondingSourceObject: {fileID: 0}
  m_PrefabInstance: {fileID: 0}
  m_PrefabAsset: {fileID: 0}
  m_GameObject: {fileID: 0}
  m_Enabled: 1
  m_EditorHideFlags: 0
  m_Script: {fileID: 12395, guid: 0000000000000000e000000000000000, type: 0}
  m_Name: Palette Settings
  m_EditorClassIdentifier: 
  cellSizing: 0
  m_TransparencySortMode: 0
  m_TransparencySortAxis: {x: 0, y: 0, z: 1}
